{
  "projectDir": "./example",
  "inputDir": "src",
  "outputDir": "dist",
  "paths": {
    "css": "css",
    "js": "js",
    "fonts": "fonts",
    "icons": "images/icons"
  },
  "outputPaths": {
    "css": "css",
    "js": "js",
    "fonts": "fonts",
    "icons": "images/icons"
  },
  "vhost": "localhost:8081",
  "dependencies": [
    "jquery#2.2.3",
    "bootstrap#4.0.0-alpha.2"
  ],
  "imports": {
    "jquery/dist/jquery.min.js": "js/vendor/jquery",
    "bootstrap/js/dist/*.js": "js/vendor/bootstrap",
    "bootstrap/scss/**/*.scss": "css/vendor/bootstrap"
  }
}
