<?xml version="1.0" encoding="utf-8"?>
<!-- Generated by IcoMoon.io -->
<!DOCTYPE svg PUBLIC "-//W3C//DTD SVG 1.1//EN" "http://www.w3.org/Graphics/SVG/1.1/DTD/svg11.dtd">
<svg version="1.1" xmlns="http://www.w3.org/2000/svg" xmlns:xlink="http://www.w3.org/1999/xlink" width="64" height="64" viewBox="0 0 64 64">
<path fill="#444444" d="M58.614 28.766l-18.412-18.412c-0.88-0.93-1.968-1.396-3.262-1.396s-2.41 0.464-3.34 1.396c-0.88 0.88-1.322 1.968-1.322 3.262s0.442 2.382 1.322 3.262l10.31 10.314h-35.16c-1.284 0.034-2.382 0.51-3.298 1.43-0.914 0.914-1.372 1.996-1.372 3.24 0 1.318 0.456 2.432 1.372 3.352 0.84 0.84 1.922 1.3 3.242 1.372l35.41 0.046-10.346 10.24c-0.884 0.93-1.322 2.046-1.322 3.342s0.44 2.382 1.322 3.262c0.93 0.93 2.042 1.402 3.34 1.402 1.188 0 2.278-0.444 3.262-1.322l18.256-18.182c0.936-1.032 1.402-2.146 1.402-3.34-0.002-1.294-0.468-2.382-1.404-3.268z"></path>
</svg>
