<?xml version="1.0" encoding="utf-8"?>
<!-- Generated by IcoMoon.io -->
<!DOCTYPE svg PUBLIC "-//W3C//DTD SVG 1.1//EN" "http://www.w3.org/Graphics/SVG/1.1/DTD/svg11.dtd">
<svg version="1.1" xmlns="http://www.w3.org/2000/svg" xmlns:xlink="http://www.w3.org/1999/xlink" width="64" height="64" viewBox="0 0 64 64">
<path fill="#444444" d="M4.036 10.592h13.060v42.816h-13.060v-42.816z"></path>
<path fill="#444444" d="M25.544 32h13.062v21.408h-13.062v-21.408z"></path>
<path fill="#444444" d="M46.736 18.024h13.062v35.386h-13.062v-35.386z"></path>
</svg>
