<?xml version="1.0" encoding="utf-8"?>
<!-- Generated by IcoMoon.io -->
<!DOCTYPE svg PUBLIC "-//W3C//DTD SVG 1.1//EN" "http://www.w3.org/Graphics/SVG/1.1/DTD/svg11.dtd">
<svg version="1.1" xmlns="http://www.w3.org/2000/svg" xmlns:xlink="http://www.w3.org/1999/xlink" width="64" height="64" viewBox="0 0 64 64">
<path fill="#444444" d="M30.942 6.712c0.466 0.288 0.986 0.708 1.568 1.262 0.556 0.578 1.102 1.29 1.636 2.13 0.512 0.794 0.966 1.73 1.362 2.814 0.324 1.082 0.486 2.346 0.486 3.79-0.042 2.646-0.628 4.762-1.754 6.352-0.55 0.77-1.134 1.48-1.75 2.128-0.684 0.648-1.41 1.31-2.18 1.984-0.442 0.456-0.848 0.974-1.222 1.552-0.44 0.602-0.662 1.298-0.662 2.092 0 0.774 0.226 1.41 0.678 1.914 0.384 0.482 0.756 0.904 1.12 1.264l2.51 2.056c1.558 1.278 2.926 2.68 4.102 4.22 1.106 1.566 1.684 3.61 1.732 6.134 0 3.586-1.586 6.76-4.75 9.53-3.278 2.864-8.018 4.34-14.208 4.438-5.182-0.048-9.050-1.154-11.606-3.312-2.576-2.020-3.868-4.432-3.868-7.24 0-1.368 0.418-2.894 1.26-4.576 0.812-1.678 2.286-3.156 4.42-4.428 2.394-1.366 4.91-2.282 7.548-2.738 2.612-0.382 4.78-0.6 6.506-0.648-0.534-0.702-1.008-1.452-1.426-2.25-0.486-0.774-0.728-1.706-0.728-2.792 0-0.652 0.092-1.2 0.276-1.634 0.162-0.462 0.314-0.882 0.452-1.27-0.84 0.096-1.634 0.144-2.376 0.144-3.94-0.048-6.94-1.288-9.006-3.716-2.164-2.264-3.246-4.898-3.246-7.902 0-3.636 1.53-6.928 4.596-9.888 2.102-1.73 4.288-2.858 6.554-3.392 2.244-0.458 4.348-0.686 6.31-0.686h14.794l-4.568 2.668h-4.56zM33.798 49.296c0-1.878-0.612-3.512-1.836-4.908-1.296-1.322-3.322-2.946-6.078-4.874-0.472-0.048-1.026-0.072-1.662-0.072-0.376-0.046-1.344 0-2.898 0.144-1.53 0.218-3.098 0.566-4.7 1.048-0.376 0.144-0.906 0.362-1.586 0.652-0.684 0.312-1.378 0.758-2.086 1.336-0.684 0.602-1.26 1.346-1.73 2.238-0.544 0.94-0.812 2.070-0.812 3.394 0 2.598 1.174 4.74 3.53 6.424 2.24 1.684 5.3 2.55 9.188 2.6 3.486-0.050 6.15-0.82 7.984-2.31 1.79-1.474 2.686-3.362 2.686-5.672zM23.484 27.612c1.948-0.072 3.57-0.774 4.868-2.1 0.628-0.94 1.030-1.904 1.208-2.892 0.106-0.99 0.162-1.818 0.162-2.496 0-2.916-0.746-5.858-2.238-8.822-0.702-1.422-1.622-2.58-2.764-3.47-1.168-0.84-2.508-1.288-4.022-1.336-2.004 0.048-3.67 0.856-5 2.422-1.12 1.64-1.658 3.472-1.606 5.496 0 2.676 0.78 5.456 2.346 8.352 0.76 1.348 1.734 2.494 2.936 3.432 1.198 0.944 2.568 1.414 4.11 1.414z"></path>
<path fill="#444444" d="M60.112 12.124h-7.762v-7.764h-3.76v7.764h-7.762v3.762h7.762v7.76h3.76v-7.76h7.762z"></path>
</svg>
