<?xml version="1.0" encoding="utf-8"?>
<!-- Generated by IcoMoon.io -->
<!DOCTYPE svg PUBLIC "-//W3C//DTD SVG 1.1//EN" "http://www.w3.org/Graphics/SVG/1.1/DTD/svg11.dtd">
<svg version="1.1" xmlns="http://www.w3.org/2000/svg" xmlns:xlink="http://www.w3.org/1999/xlink" width="64" height="64" viewBox="0 0 64 64">
<path fill="#444444" d="M26.624 16.918c-0.726-8.354-9.438-12.45-9.808-12.616-0.344-0.166-0.734-0.216-1.106-0.148-10.058 1.668-11.572 7.522-11.632 7.766-0.084 0.34-0.068 0.692 0.040 1.022 11.996 37.226 36.93 44.128 45.126 46.398 0.63 0.176 1.152 0.316 1.546 0.446 0.192 0.064 0.39 0.090 0.588 0.090 0.27 0 0.54-0.058 0.786-0.17 0.252-0.118 6.174-2.904 7.624-12.008 0.062-0.39 0-0.804-0.182-1.162-0.13-0.252-3.228-6.146-11.82-8.23-0.6-0.156-1.216 0.006-1.68 0.4-2.712 2.314-6.454 4.78-8.072 5.036-10.828-5.296-16.878-15.454-17.104-17.382-0.134-1.084 2.35-4.888 5.202-7.982 0.36-0.396 0.542-0.926 0.492-1.46z"></path>
</svg>
