<?xml version="1.0" encoding="utf-8"?>
<!-- Generated by IcoMoon.io -->
<!DOCTYPE svg PUBLIC "-//W3C//DTD SVG 1.1//EN" "http://www.w3.org/Graphics/SVG/1.1/DTD/svg11.dtd">
<svg version="1.1" xmlns="http://www.w3.org/2000/svg" xmlns:xlink="http://www.w3.org/1999/xlink" width="64" height="64" viewBox="0 0 64 64">
<path fill="#444444" d="M19.076 52.778c0 4.128-3.346 7.474-7.474 7.474s-7.474-3.346-7.474-7.474c0-4.128 3.346-7.474 7.474-7.474s7.474 3.346 7.474 7.474z"></path>
<path fill="#444444" d="M4.138 33.936c7.006 0 13.586 2.74 18.538 7.71 4.954 4.98 7.68 11.608 7.68 18.664h10.79c0-20.492-16.6-37.166-37.006-37.166v10.792z"></path>
<path fill="#444444" d="M4.152 14.806c24.958 0 45.266 20.42 45.266 45.512h10.786c0-31.046-25.144-56.302-56.054-56.302v10.79z"></path>
</svg>
